{
  "area": [
    {
      "xpos": 10,
      "ypos": 100,
      "width": 1010,
      "height": 56,
      "type": "exclude"
    },
    {
      "xpos": 952,
      "ypos": 38,
      "width": 67,
      "height": 36,
      "type": "match",
      "click_point": {
        "xpos": 33.5,
        "ypos": 18
      }
    },
    {
      "xpos": 26,
      "ypos": 39,
      "width": 992,
      "height": 703,
      "type": "match"
    }
  ],
  "properties": [],
  "tags": [
    "gnome_firstboot_welcome"
  ]
}
